Review
…
This function generates 3 different line plots and again identifies that the July 4th dataset only plots one data point because it consists of only one days worth of data.

* `ngram.print()

This function should generate a table of associated n-grams.

tryCatch(ngram.print(condensed, ngram = 2, num = 10),
         error = function(e) e)

## # A tibble: 11,849 x 2
##    bigram                    n
##    <chr>                 <int>
##  1 president trump          37
##  2 prime minister           26
##  3 white house              26
##  4 thomson reuters          25
##  5 reuters trust            23
##  6 standards:the thomson    23
##  7 trust principles         23
##  8 los angeles              21
##  9 supreme court            21
## 10 emmy awards              20
## # ... with 11,839 more rows
…
tryCatch(ngram.print(hurricane, ngram = 2, num = 10),
         error = function(e) e)

## # A tibble: 20,277 x 2
##    bigram                n
##    <chr>             <int>
##  1 white house         187
##  2 getty ktla          138
##  3 historic trail      138
##  4 hurricane maria     138
##  5 maria left          138
##  6 puerto rico         138
##  7 los angeles         125
##  8 parris island       124
##  9 president trump      97
## 10 president trump's    96
## # ... with 20,267 more rows
…
tryCatch(ngram.print(july4th, ngram = 2, num = 10),
         error = function(e) e)

## # A tibble: 55,059 x 2
##    bigram                    n
##    <chr>                 <int>
##  1 north korea             495
##  2 thomson reuters         233
##  3 reuters trust           208
##  4 standards:the thomson   208
##  5 trust principles        208
##  6 ballistic missile       178
##  7 emmy awards             176
##  8 president trump         165
##  9 los angeles             155
## 10 south korea             140
## # ... with 55,049 more rows
…
